<?xml version="1.0" encoding="UTF-8"?>
<svg width="47px" height="56px" viewBox="0 0 47 56" version="1.1" xmlns="http://www.w3.org/2000/svg" xmlns:xlink="http://www.w3.org/1999/xlink">
    <!-- Generator: Sketch 60.1 (88133) - https://sketch.com -->
    <title>planet-amarello</title>
    <desc>Created with Sketch.</desc>
    <defs>
        <path d="M0.494,22.726 C0.494,35.228 10.628,45.362 23.128,45.362 L23.128,45.362 C35.63,45.362 45.762,35.228 45.762,22.726 L45.762,22.726 C45.762,10.228 35.63,0.094 23.128,0.094 L23.128,0.094 C10.628,0.094 0.494,10.228 0.494,22.726 L0.494,22.726 Z" id="path-1"></path>
        <path d="M0.494,22.726 C0.494,35.228 10.628,45.362 23.128,45.362 L23.128,45.362 C35.63,45.362 45.762,35.228 45.762,22.726 L45.762,22.726 C45.762,10.228 35.63,0.094 23.128,0.094 L23.128,0.094 C10.628,0.094 0.494,10.228 0.494,22.726 L0.494,22.726 Z" id="path-3"></path>
        <path d="M0.494,22.726 C0.494,35.228 10.628,45.362 23.128,45.362 L23.128,45.362 C35.63,45.362 45.762,35.228 45.762,22.726 L45.762,22.726 C45.762,10.228 35.63,0.094 23.128,0.094 L23.128,0.094 C10.628,0.094 0.494,10.228 0.494,22.726 L0.494,22.726 Z" id="path-5"></path>
        <polygon id="path-7" points="0.7484 0.678 10.9804 0.678 10.9804 10.9098 0.7484 10.9098"></polygon>
    </defs>
    <g id="Badges-&amp;-Planets" stroke="none" stroke-width="1" fill="none" fill-rule="evenodd">
        <g transform="translate(-638.000000, -417.000000)" id="planet-amarello">
            <g transform="translate(629.000000, 413.000000)">
                <g transform="translate(9.000000, 3.000000)">
                    <path d="M45.7616,34.0502 C45.7616,46.5502 35.6296,56.6842 23.1296,56.6842 C10.6296,56.6842 0.4936,46.5502 0.4936,34.0502 C0.4936,21.5502 10.6296,11.4162 23.1296,11.4162 C35.6296,11.4162 45.7616,21.5502 45.7616,34.0502" id="Fill-1" fill="#F7CC4F"></path>
                    <g id="Group-12" transform="translate(0.000000, 11.322800)">
                        <g id="Group-5">
                            <mask id="mask-2" fill="white">
                                <use xlink:href="#path-1"></use>
                            </mask>
                            <g id="Clip-4"></g>
                            <path d="M-19.9922,16.2634 C-17.2982,15.7234 51.6938,-6.3746 51.6938,-6.3746 L63.5498,4.4054 L-27.0002,23.8094 L-19.9922,16.2634 Z" id="Fill-3" fill="#F9DD8D" mask="url(#mask-2)"></path>
                        </g>
                        <g id="Group-8">
                            <mask id="mask-4" fill="white">
                                <use xlink:href="#path-3"></use>
                            </mask>
                            <g id="Clip-7"></g>
                            <path d="M-6.5176,20.575 C-5.4396,20.575 56.0044,17.341 56.0044,17.341 C56.0044,17.341 58.6984,32.433 57.6204,31.895 C56.5424,31.355 -22.1476,27.043 -22.1476,27.043 L-6.5176,20.575 Z" id="Fill-6" fill="#F9DD8D" mask="url(#mask-4)"></path>
                        </g>
                        <g id="Group-11">
                            <mask id="mask-6" fill="white">
                                <use xlink:href="#path-5"></use>
                            </mask>
                            <g id="Clip-10"></g>
                            <path d="M-5.9786,32.4334 C-4.9006,33.5114 63.0114,32.4334 63.0114,32.4334 C63.0114,32.4334 63.0114,47.5254 61.9334,46.9854 C60.8554,46.4474 -15.6826,35.6674 -15.6826,35.6674 L-5.9786,32.4334 Z" id="Fill-9" fill="#F9DD8D" mask="url(#mask-6)"></path>
                        </g>
                    </g>
                    <g id="Group-32" transform="translate(8.000000, 0.322800)">
                        <path d="M10.2656084,35.8026 C10.2616,37.5606 8.8336,38.9826 7.0736,38.9786084 C5.3156,38.9746 3.8936,37.5486 3.89759158,35.7886 C3.9016,34.0306 5.3296,32.6086 7.0876,32.6125916 C8.8476,32.6166 10.2696,34.0446 10.2656084,35.8026" id="Fill-13" fill="#C39734"></path>
                        <path d="M7.6034,38.538 C5.8454,38.534 4.4234,37.106 4.4274,35.348 C4.4294,34.492 4.7694,33.714 5.3194,33.144 C4.4654,33.712 3.8994,34.684 3.89739789,35.788 C3.8954,37.548 5.3154,38.976 7.0734,38.980008 C7.9774,38.982 8.7914,38.608 9.3714,38.006 C8.8654,38.344 8.2574,38.538 7.6034,38.538" id="Fill-15" fill="#9B6D14"></path>
                        <path d="M18.2636024,19.2792 C18.2596,20.8312 16.9976,22.0872 15.4476,22.0832095 C13.8936,22.0792 12.6396,20.8192 12.6415976,19.2672 C12.6456,17.7152 13.9076,16.4592 15.4596,16.4631905 C17.0116,16.4672 18.2656,17.7272 18.2636024,19.2792" id="Fill-17" fill="#C39734"></path>
                        <path d="M15.914,21.6932 C14.362,21.6912 13.108,20.4292 13.11,18.8772 C13.112,18.1212 13.412,17.4372 13.898,16.9332 C13.1419905,17.4352 12.644,18.2912 12.6419905,19.2672 C12.638,20.8192 13.894,22.0792 15.448,22.083209 C16.242,22.0852 16.962,21.7552 17.474,21.2252 C17.028,21.5212 16.49,21.6932 15.914,21.6932" id="Fill-19" fill="#9B6D14"></path>
                        <path d="M27.4258095,47.8456 C27.4218,49.3976 26.1618,50.6536 24.6098,50.6496095 C23.0578,50.6456 21.8018,49.3856 21.8057905,47.8336 C21.8078,46.2816 23.0698,45.0256 24.6218,45.0295905 C26.1738,45.0336 27.4298,46.2936 27.4258095,47.8456" id="Fill-21" fill="#C39734"></path>
                        <path d="M25.0762,50.2596 C23.5262,50.2576 22.2702,48.9956 22.2742,47.4436 C22.2762,46.6876 22.5742,46.0036 23.0602,45.4996 C22.3061905,46.0016 21.8082,46.8596 21.8061905,47.8336 C21.8022,49.3856 23.0582,50.6456 24.6102,50.649609 C25.4062,50.6516 26.1242,50.3216 26.6362,49.7916 C26.1922,50.0896 25.6542,50.2616 25.0762,50.2596" id="Fill-23" fill="#9B6D14"></path>
                        <path d="M25.3164,13.5076 C30.4664,17.6676 33.7584,24.0396 33.7424,31.1756 C33.7164,43.6756 23.5604,53.7876 11.0604,53.7596 C7.4144,53.7536 3.9724,52.8816 0.9264,51.3436 C4.7964,54.4696 9.7184,56.3476 15.0824,56.35965 C27.5844,56.3856 37.7384,46.2736 37.7664478,33.7736 C37.7844,24.9196 32.7144,17.2436 25.3164,13.5076" id="Fill-25" fill-opacity="0.1" fill="#231F20"></path>
                        <g id="Group-29" transform="translate(28.000000, 0.000000)">
                            <mask id="mask-8" fill="white">
                                <use xlink:href="#path-7"></use>
                            </mask>
                            <g id="Clip-28"></g>
                            <path d="M10.9804,5.7938 C10.9804,8.6198 8.6904,10.9098 5.8644,10.9098 C3.0384,10.9098 0.7484,8.6198 0.7484,5.7938 C0.7484,2.9678 3.0384,0.6778 5.8644,0.6778 C8.6904,0.6778 10.9804,2.9678 10.9804,5.7938" id="Fill-27" fill="#C39734" mask="url(#mask-8)"></path>
                        </g>
                        <path d="M36.168,1.2234 C37.332,2.1634 38.076,3.6034 38.072,5.2174 C38.066,8.0434 35.772,10.3274 32.946,10.3214 C32.122,10.3194 31.344,10.1234 30.654,9.7754 C31.53,10.4814 32.642,10.9074 33.856,10.9094118 C36.68,10.9154 38.976,8.6294 38.9820104,5.8054 C38.986,3.8034 37.84,2.0674 36.168,1.2234" id="Fill-30" fill-opacity="0.1" fill="#231F20"></path>
                    </g>
                </g>
            </g>
        </g>
    </g>
</svg>